stm32l4xx_hal_msp.c:64:6:HAL_MspInit	16	static
stm32l4xx_hal_msp.c:86:6:HAL_SPI_MspInit	48	static
stm32l4xx_hal_msp.c:126:6:HAL_SPI_MspDeInit	16	static
stm32l4xx_hal_msp.c:158:6:HAL_UART_MspInit	48	static
stm32l4xx_hal_msp.c:204:6:HAL_UART_MspDeInit	16	static
